{
  "project_info": {
    "project_number": "1066128355264",
    "firebase_url": "https://cop4656-project-2.firebaseio.com",
    "project_id": "cop4656-project-2",
    "storage_bucket": "cop4656-project-2.appspot.com"
  },
  "client": [
    {
      "client_info": {
        "mobilesdk_app_id": "1:1066128355264:android:4a13a7cbd95435eb",
        "android_client_info": {
          "package_name": "cop4656.project2"
        }
      },
      "oauth_client": [
        {
          "client_id": "1066128355264-q28lgei4q0ft6jjcaoh35i1gr93os52l.apps.googleusercontent.com",
          "client_type": 3
        }
      ],
      "api_key": [
        {
          "current_key": "AIzaSyBOwvL8m6mTYYh6owjTPIOEU4GjcUnYSkU"
        }
      ],
      "services": {
        "analytics_service": {
          "status": 1
        },
        "appinvite_service": {
          "status": 1,
          "other_platform_oauth_client": []
        },
        "ads_service": {
          "status": 2
        }
      }
    }
  ],
  "configuration_version": "1"
}